[
	{"name": "104.1 fm", "url": "https://cast4.audiostream.com.br:2651/mp3"},
	{"name": "Antena 1 rio", "url": "http://a1rj.streams.com.br:7801/sm"},
	{"name": "Caioba fm", "url": "https://servidor35.brlogic.com:7094/live"},
	{"name": "Clube fm", "url": "https://shout07.crossradio.com.br:18004/1.mp3"},
	{"name": "Eldorado fm", "url": "http://cast4.audiostream.com.br:8652/mp3"},
	{"name": "Gazeta fm", "url": "https://shout25.crossradio.com.br:18156/1;"},
	{"name": "Jovem pan fm", "url": "https://shout35.crossradio.com.br:18038/1"},
	{"name": "Massa fm", "url": "https://radio.saopaulo01.com.br/8198/stream"},
	{"name": "Nativa fm", "url": "https://servidor28.brlogic.com:8264/live"},
	{"name": "Nossa radio", "url": "https://servidor24.brlogic.com:8524/live"},
	{"name": "Nossa radio fm", "url": "https://servidor35.brlogic.com:8206/live"},
	{"name": "Noticia fm", "url": "https://cast.hoost.com.br:20049/live"},
	{"name": "Nova fm", "url": "http://cast3.hoost.com.br:9071/live"},
	{"name": "Piata fm", "url": "http://str10.hostgator.com.br:9992/;"},
	{"name": "Radio america 750", "url": "https://9735.brasilstream.com.br/mp3"},
	{"name": "Radio cbn", "url": "https://radio901.webnimbus.cloud/radioalpha/icecast.audio"},
	{"name": "Radio clube fm", "url": "https://servidor37.brlogic.com:8060/live"},
	{"name": "Radio difusora", "url": "http://euroticast5.euroti.com.br:8114/;"},
	{"name": "Radio difusora sao francisco", "url": "https://servidor28-3.brlogic.com:8018/live"},
	{"name": "Radio educadora fm", "url": "https://streaming.educadora.irdeb.ba.gov.br/stream-01"},
	{"name": "Radio grenal", "url": "http://cast4.audiostream.com.br:8649/mp3"},
	{"name": "Radio guaiba", "url": "http://cast4.audiostream.com.br:8007/app"},
	{"name": "Radio imaculada conceicao", "url": "https://caikron.com.br:8000/stream"},
	{"name": "Radio independente", "url": "https://s01.maxcast.com.br:8024/live"},
	{"name": "Radio jk fm", "url": "https://radio.saopaulo01.com.br/8054/stream"},
	{"name": "Radio laser fm", "url": "http://euroticast5.euroti.com.br:8208/;"},
	{"name": "Radio lider fm", "url": "https://264398c.ha.azioncdn.net/primary/radio90_7fm.sdp/playlist.m3u8"},
	{"name": "Radio mania fm", "url": "https://s03.maxcast.com.br:8188/live"},
	{"name": "Radio melodia", "url": "http://radio2.suaradionanet.net:10574/autodj"},
	{"name": "Radio morada do sol", "url": "https://r13.ciclano.io:15219/live"},
	{"name": "Radio sao francisco", "url": "http://cast.hoost.com.br:9734/stream"},
	{"name": "Radio tropical fm", "url": "http://r13.ciclano.io:8942/live"},
	{"name": "Rbn - radio boa nova", "url": "http://srv39.brasilstream.com.br:8592/mp3"},
	{"name": "Rede aleluia brasilia", "url": "https://384398c.ha.azioncdn.net/primary/brasilia.sdp/playlist.m3u8"},
	{"name": "Terra fm", "url": "https://player.srvstm.com/proxy/6862/3"}
]
