[
	{"name": "101.7 the one", "url": "https://live.leanstream.co/CKNXFM-MP3"},
	{"name": "107.5 bolt fm", "url": "https://goldenwest.leanstream.co/CHBOFM-MP3"},
	{"name": "89.9 the wave", "url": "https://mbsradio.leanstream.co/CHNSFM-MP3"},
	{"name": "93.1 fresh radio", "url": "https://live.leanstream.co/CHAYFM-MP3"},
	{"name": "95.3 fresh radio", "url": "https://corus.leanstream.co/CINGFM-MP3"},
	{"name": "Cbc music - atlantic", "url": "http://cbcmp3.ic.llnwd.net/stream/cbcmp3_cbc_r2_hfx"},
	{"name": "Cbc music - central", "url": "http://cbcmp3.ic.llnwd.net/stream/cbcmp3_cbc_r2_wpg"},
	{"name": "Cbc music - eastern", "url": "http://cbcmp3.ic.llnwd.net/stream/cbcmp3_cbc_r2_tor"},
	{"name": "Cbc music - mountain", "url": "http://cbcmp3.ic.llnwd.net/stream/cbcmp3_cbc_r2_edm"},
	{"name": "Cbc music - pacific", "url": "http://cbcmp3.ic.llnwd.net/stream/cbcmp3_cbc_r2_vcr"},
	{"name": "Cbc radio 1 alberta", "url": "http://cbcmp3.ic.llnwd.net/stream/cbcmp3_cbc_r1_cgy"},
	{"name": "Cbc radio 1 british columbia", "url": "http://cbcmp3.ic.llnwd.net/stream/cbcmp3_cbc_r1_vic"},
	{"name": "Cbc radio 1 manitoba", "url": "http://cbcmp3.ic.llnwd.net/stream/cbcmp3_cbc_r1_wpg"},
	{"name": "Cbc radio 1 new brunswick", "url": "http://cbcmp3.ic.llnwd.net/stream/cbcmp3_cbc_r1_snb"},
	{"name": "Cbc radio 1 newfoundland and labrador", "url": "http://cbcmp3.ic.llnwd.net/stream/cbcmp3_cbc_r1_cor"},
	{"name": "Cbc radio 1 nova scotia", "url": "http://cbcmp3.ic.llnwd.net/stream/cbcmp3_cbc_r1_hfx"},
	{"name": "Cbc radio 1 nunavut", "url": "http://cbcmp3.ic.llnwd.net/stream/cbcmp3_cbc_r1_iqa"},
	{"name": "Cbc radio 1 ontario", "url": "http://cbcmp3.ic.llnwd.net/stream/cbcmp3_cbc_r1_eri"},
	{"name": "Cbc radio 1 quebec", "url": "http://cbcmp3.ic.llnwd.net/stream/cbcmp3_cbc_r1_mtl"},
	{"name": "Cbc radio 1 saskatchewan", "url": "http://cbcmp3.ic.llnwd.net/stream/cbcmp3_cbc_r1_ssk"},
	{"name": "Cbc radio 1 yukon", "url": "http://cbcmp3.ic.llnwd.net/stream/cbcmp3_cbc_r1_whs"},
	{"name": "Cbn radio", "url": "https://audio.cabobranco.tv.br:8000/cbncg"},
	{"name": "Chgo-fm", "url": "https://stream2.statsradio.com:8136/stream"},
	{"name": "Ckua radio network", "url": "https://ais-sa1.streamon.fm/7000_64k.mp3"},
	{"name": "Cool fm", "url": "https://live.leanstream.co/CKUEFM-MP3"},
	{"name": "Fm96", "url": "https://corus.leanstream.co/CFPLFM-MP3"},
	{"name": "Ici musique pacific", "url": "http://cbcmp3.ic.llnwd.net/stream/cbcmp3_M-7BVAN0_VAN"},
	{"name": "Ici radio - canada premiere ontario", "url": "http://cbcmp3.ic.llnwd.net/stream/cbcmp3_P-2OSUB0_SUB"},
	{"name": "Ici radio - canada premiere qc", "url": "http://cbcmp3.ic.llnwd.net/stream/cbcmp3_P-2QSEP0_SEP"},
	{"name": "James bay cree communications society", "url": "https://streamingv2.shoutcast.com/cree-nation-radio"},
	{"name": "Kfm", "url": "http://sc8.streamingpulse.info:8116/;"},
	{"name": "Nci fm", "url": "http://178.obj.netromedia.com:8000/4"},
	{"name": "News talk 980 cjme", "url": "https://rawlco.leanstream.co/CJMEAM-MP3"},
	{"name": "Oz fm", "url": "https://server10.reliastream.com/proxy/nfbroadc/stream"},
	{"name": "Power 97", "url": "https://live.leanstream.co/CJKRFM-MP3"},
	{"name": "Rock 101", "url": "https://live.leanstream.co/CFMIFM-MP3"},
	{"name": "Vocm", "url": "https://blackburn.leanstream.co/CFCBAM-MP3"}
]
