[
	{"name": "902 fm", "url": "http://media.wlmm.dk/902fmmp3"},
	{"name": "Albertslund nrradio", "url": "http://87.61.251.162:8080/stream"},
	{"name": "Always elvis", "url": "https://radioserver.dk/alwayselvisradio"},
	{"name": "Anr fm", "url": "http://arnehansen.net:8000/stream"},
	{"name": "Arkens radio ucb", "url": "http://46.32.62.72:88/broadwave.mp3?src=2&rate=0"},
	{"name": "Classic fm", "url": "https://webradio.classicfm.dk/classicfyn"},
	{"name": "Classic rock kbenhavn", "url": "https://internetradio.salue.de:8443/classicrock.mp3"},
	{"name": "Dansktopkanalen", "url": "https://netradio.classicfm.dk/dansktop"},
	{"name": "Folkets radio lumi aalborg 10. studenter", "url": "https://balamii.out.airtime.pro:8000/folketsradio_a"},
	{"name": "Globus guld", "url": "http://stream2.wlmm.dk/guldkoldingmp3"},
	{"name": "Glr - gentofte lokal radio", "url": "https://live-bauerdk.sharp-stream.com/thevoice_dk_mp3"},
	{"name": "Halsns radio retro", "url": "http://10312.cloudrad.io:9010/;"},
	{"name": "Lumi radio syd sydvest syddanmark studio tnder", "url": "http://stream2.wlmm.dk/syddanmark.m3u"},
	{"name": "Midtfjord radio - radio nibenitten", "url": "http://stream.midtfjordradio.dk/netradio"},
	{"name": "Mycountry", "url": "https://netradio.classicfm.dk/country"},
	{"name": "Myrock", "url": "https://live-bauerdk.sharp-stream.com/myrock_dk_mp3"},
	{"name": "Nova fm", "url": "http://stream.novafm.dk/nova128"},
	{"name": "Planet rock", "url": "https://live-bauerdk.sharp-stream.com/planetrock_dk.mp3"},
	{"name": "Pop fm", "url": "http://stream.popfm.dk/pop128"},
	{"name": "Popfm 80'er", "url": "https://live-bauerdk.sharp-stream.com/popfm_dk_tunein_mp3"},
	{"name": "Radio 100", "url": "https://tx-bauerdk.sharp-stream.com/http_live.php?i=radio100_dk_tunein_mp3"},
	{"name": "Radio 208", "url": "http://stream.wlmm.dk:8010/radio208mp3"},
	{"name": "Radio adalen", "url": "http://radio-aadalen.no-ip.net:8000/;"},
	{"name": "Radio alfa", "url": "https://icecast1.radiostuff.dk/Alfasydfyn128"},
	{"name": "Radio alfa - gold", "url": "https://radioserver.dk/alfaevent"},
	{"name": "Radio boost", "url": "http://10312.cloudrad.io:8066/;"},
	{"name": "Radio denmark fm", "url": "https://live-bauerdk.sharp-stream.com/radio100_dk_mp3"},
	{"name": "Radio diablo", "url": "https://icecast1.radiostuff.dk/Diablo128"},
	{"name": "Radio globus", "url": "http://stream2.wlmm.dk/globus2"},
	{"name": "Radio haderslev", "url": "http://media.wlmm.dk/radiohaderslevmp3"},
	{"name": "Radio halsns - retro - stina fm", "url": "http://halsstream.spdns.de/;"},
	{"name": "Radio helsingr fm", "url": "https://stream.radiohelsingor.dk/rh"},
	{"name": "Radio klitholm det ny kanal 1", "url": "http://stream.radioklitholm.dk:8000/stream"},
	{"name": "Radio limfjord", "url": "https://media.limfjordnetradio.dk/limfjord128"},
	{"name": "Radio limfjord mix", "url": "https://media.limfjordnetradio.dk/mixaac"},
	{"name": "Radio limfjord schlager", "url": "https://media.limfjordnetradio.dk/plusslager128"},
	{"name": "Radio loud", "url": "https://stream.radioloud.dk/loud128"},
	{"name": "Radio nordjyske", "url": "https://stream.anr.dk/nordjyske"},
	{"name": "Radio odsherred", "url": "http://87.104.40.139:88/broadwave.mp3"},
	{"name": "Radio ringkbing", "url": "http://netradio.radioringkobing.dk:8000/;"},
	{"name": "Radio rnde - radio djursland - kanal 3", "url": "https://stream.probroadcast.dk/djurs"},
	{"name": "Radio silkeborg", "url": "https://stream.radiosilkeborg.dk/silkeborg"},
	{"name": "Radio soft", "url": "https://tx-bauerdk.sharp-stream.com/http_live.php?i=radiosoft_dk_mp3"},
	{"name": "Radio soft kbenhavns nr bispebjerg lr bella chr", "url": "https://live-bauerdk.sharp-stream.com/radiosoft_dk_tunein_mp3"},
	{"name": "Radio solo m", "url": "https://radioserver.dk/solohern"},
	{"name": "Radio sydhavserne", "url": "https://stream.probroadcast.dk/sydhavsradiomp3"},
	{"name": "Radio update - nordsjllands kristne r - din radio", "url": "http://studie.hkr.dk:8000/stream.mp3"},
	{"name": "Radio viborg", "url": "https://webradio.radioviborg.dk/viborg"},
	{"name": "Sams radio", "url": "https://stream.probroadcast.dk/samsoe"},
	{"name": "Skala fm", "url": "https://webradio.skala.fm/sydfyn"},
	{"name": "Stina fm", "url": "http://10312.cloudrad.io:9208/;"},
	{"name": "The voice", "url": "https://live-bauerdk.sharp-stream.com/voice128.mp3"},
	{"name": "Urbanmusic", "url": "https://dab.jfmedier.dk/urban"},
	{"name": "Vendsyssel frederikshavn lr sby fm", "url": "http://arnehansen.net:8000/;"},
	{"name": "Vlr", "url": "https://webradio.vlr.dk/vlrvejle"},
	{"name": "World music radio", "url": "http://stream.wlmm.dk:8010/wmrmp3"},
	{"name": "X fm k", "url": "https://uniradio.out.airtime.pro/uniradio_a"}
]
