[
	{"name": "Aragon Radio", "url": "https://cartv.streaming.aranova.es/mp3/tunein/aragonradio_aragonradio1_96.mp3"},
	{"name": "Bikini FM", "url": "https://stream.mediasector.es/radio/8030/bikinifm-alicante.mp3"},
	{"name": "Bizkaia Irratia", "url": "http://nerbioi.radiopopular.eus:8000/bizkaiairratia2"},
	{"name": "Cadena 100", "url": "http://eu1.lhdserver.es:8016/stream"},
	{"name": "Cadena FM", "url": "https://flucast-b05-01.flumotion.com/cope/cadena100-low.mp3"},
	{"name": "Cadena Luna", "url": "https://streaming.sonmedia.es:7004/stream"},
	{"name": "Canal 4 Radio FM", "url": "http://capdeperaradio.recasound.es:8011/stream#.mp3"},
	{"name": "Capital Radio", "url": "https://capitalradio-live.flumotion.com/capital-radio/capitalradio.mp3"},
	{"name": "Ciudad Real", "url": "https://wecast-b01-04.flumotion.com/copesedes/ciudadreal.mp3"},
	{"name": "COPE", "url": "http://centova.nsprimario.com:8008/stream"},
	{"name": "Crtvg Radio Galega", "url": "https://wecast-b01-02.flumotion.com/radiogalega/live.mp3"},
	{"name": "Crtvg RG Musica", "url": "https://canalextremadura-radio.flumotion.com/radiogalega-musica/live.mp3"},
	{"name": "Decisiun Radio", "url": "https://s2.radio.co/s41b5a1af1/listen"},
	{"name": "Digital Hits FM", "url": "http://chrome.frilab.com:8000/digitalhits"},
	{"name": "Dynamis Radio", "url": "https://control.streaming-pro.com:8014/stream"},
	{"name": "Ei TB Gaztea", "url": "http://mp3-eitb.stream.flumotion.com/eitb/gaztea.mp3"},
	{"name": "Eitb Musika", "url": "http://mp3-eitb.stream.flumotion.com/eitb/eitbmusika.mp3"},
	{"name": "esRadio", "url": "https://server10.emitironline.com:9604/radio.mp3"},
	{"name": "Euskadi Irratia", "url": "http://mp3-eitb.stream.flumotion.com/eitb/euskadiirratia.mp3"},
	{"name": "Exito Radio", "url": "https://eu1.lhdserver.es:8009/stream"},
	{"name": "Fibwi Radio", "url": "http://stream.fibwi.com:9000/stream#.mp3"},
	{"name": "Flaix FM", "url": "https://nodo05-cloud01.streaming-pro.com:8001/flaixfm.mp3"},
	{"name": "Formula Hit", "url": "https://server1.emitironline.com:9400/formulahit"},
	{"name": "Gaztea", "url": "https://eitb-gaztea.flumotion.com/eitb/gaztea.mp3"},
	{"name": "Gum FM", "url": "https://s4.radio.co/sc1cb45a9f/listen"},
	{"name": "Hit FM", "url": "https://hitfm.kissfmradio.cires21.com/hitfm.mp3"},
	{"name": "IB 3 Radio", "url": "http://streaming01.ib3radio.com:8000/ib3radio.mp3"},
	{"name": "Informa Radio", "url": "https://streams.radio.co/se18e1e587/listen"},
	{"name": "Inselradio", "url": "https://stream.inselradio.com/high.inselradio.mp3"},
	{"name": "Kiss FM", "url": "https://kissfm.kissfmradio.cires21.com/kissfm.mp3"},
	{"name": "Loca FM", "url": "http://globalradiofm.es:8649/;"},
	{"name": "Loca FM - Urban", "url": "http://locafm02.we4stream.com:8015/liv"},
	{"name": "Mega Star - Solo Temazos Madrid FM", "url": "https://flucast-b05-05.flumotion.com/cope/megastar.mp3"},
	{"name": "Megastar", "url": "https://megastar-cope-rrcast.flumotion.com/cope/megastar-low.mp3"},
	{"name": "Naiz Irratia", "url": "https://zuzenean.naiz.eus/naiz_irratia.mp3"},
	{"name": "Onda Cero", "url": "http://217.125.23.154/directo"},
	{"name": "Onda Vasca Gipuzkoa", "url": "https://stream.ondavasca.com:8001/gipuzkoa"},
	{"name": "Radio 010", "url": "http://hyades.shoutca.st:8544/;"},
	{"name": "Radio Adventista", "url": "https://stream.radiojar.com/aesy2chkb"},
	{"name": "Radio Euskadi", "url": "http://mp3-eitb.stream.flumotion.com/eitb/radioeuskadi.mp3"},
	{"name": "Radio Galega", "url": "https://canalextremadura-radio.flumotion.com/radiogalega/live.mp3"},
	{"name": "Radio Galega Musica", "url": "https://wecast03-h-cloud.flumotion.com/radiogalega-musica/live.mp3"},
	{"name": "Radio Lebrija FM", "url": "http://centova.nsprimario.com:8008/;"},
	{"name": "Radio Les Borges", "url": "http://188.164.198.121:8034/;"},
	{"name": "Radio Marca", "url": "https://marca-sansebastian.streaming-pro.com:6104/marca-le.mp3"},
	{"name": "Radio Maria", "url": "http://dreamsiteradiocp.com:8060/;"},
	{"name": "Radio Maria FM", "url": "http://dreamsiteradiocp2.com:8030/;"},
	{"name": "Radio Nervion", "url": "https://radionervion.streaming-pro.com:6132/radionervion"},
	{"name": "Radio Network RRN", "url": "http://94.23.85.189:8000/listen.mp3"},
	{"name": "Radio RAC105 FM - Andorra La Vella", "url": "http://91.187.93.115:8010/;"},
	{"name": "Radio Radio Network", "url": "http://stream.radioradio.es:8000/;"},
	{"name": "Radio Sirena Cope", "url": "http://rsirena.dnsalias.com:8000/rsirenacope"},
	{"name": "Radio Tele Taxi", "url": "https://radiott-web.streaming-pro.com:6103/radiott.mp3"},
	{"name": "Radio Vida Murcia", "url": "https://srv7021.dns-lcinternet.com/8022/stream"},
	{"name": "Radio Vitoria", "url": "http://mp3-eitb.stream.flumotion.com/eitb/radiovitoria.mp3"},
	{"name": "RNE Radio 5 Todo Noticias", "url": "https://dispatcher.rndfnk.com/crtve/rne5/nav/mp3/high"},
	{"name": "RNE Radio Nacional", "url": "https://dispatcher.rndfnk.com/crtve/rne1/ara/mp3/high"},
	{"name": "RNE Radio Nacional Madrid", "url": "https://dispatcher.rndfnk.com/crtve/rne1/mad/mp3/high"},
	{"name": "RNE Radio Nacional Navarra", "url": "https://dispatcher.rndfnk.com/crtve/rne1/nav/mp3/high"},
	{"name": "Rock FM", "url": "https://flucast-b02-02.flumotion.com/cope/rockfm-low.mp3"},
	{"name": "Talk Radio Europe", "url": "https://s3.yesstreaming.net:7014/;"},
	{"name": "Tropic FM", "url": "https://c6.auracast.net:8050/radio.mp3"},
	{"name": "Vida FM", "url": "http://ns3.mycloud-apps.es:8039/stream"}
]
