[
	{"name": "Alands Radio", "url": "https://stream.alandsradio.ax/stream.mp3"},
	{"name": "Auto", "url": "http://kuuntele.radioverkko.fi:8000/auto"},
	{"name": "Bassoradio FM", "url": "https://stream.bauermedia.fi/basso/bassoradio_128.mp3"},
	{"name": "Fin Est FM", "url": "http://212.47.220.188:8000/;"},
	{"name": "FM 95.7", "url": "https://stream.bauermedia.fi/radio957/radio957_128.mp3"},
	{"name": "Hamsi - Espoo Finland FM", "url": "http://radyo.hamsi.fm:8050/;"},
	{"name": "Hear 2012", "url": "http://hear.fi:8000/pohja.mp3"},
	{"name": "Hostradio", "url": "http://hear.fi:8000/hostradio.mp3"},
	{"name": "Indie Joulu", "url": "http://c0.toivon.net:8100/stream"},
	{"name": "Iskelma", "url": "https://stream.bauermedia.fi/iskelma/hml_128.mp3"},
	{"name": "Jarviradio FM", "url": "http://radio.6net.fi:8000/jarviradio"},
	{"name": "KAAMOS Radio", "url": "https://kxfb.out.airtime.pro:8000/radiolada_a"},
	{"name": "Kaaosradio", "url": "http://stream.kaaosradio.fi:8000/chip"},
	{"name": "Kaaosradio - 24 h Chill", "url": "https://stream.kaaosradio.fi:8001/chill"},
	{"name": "Kaaosradio - 24h Chiptune", "url": "https://kaaosradio.fi:8001/chip"},
	{"name": "Kaaosradio - Background Radiation", "url": "http://stream.kaaosradio.fi:8000/silent"},
	{"name": "Kaaosradio - Hard Techno Trance Freeform", "url": "https://kaaosradio.fi:8001/stream2"},
	{"name": "KAH Radio", "url": "https://ec5.yesstreaming.net:2170/stream"},
	{"name": "Kaupunkiradio", "url": "https://kaupunkiradio.radiotaajuus.fi:9013/radio"},
	{"name": "Kiss FM", "url": "https://stream.bauermedia.fi/kiss/kiss_128.mp3"},
	{"name": "Lasten jouluradio", "url": "https://server0.toivon.net/proxy/toivon_0_0?mp=/stream"},
	{"name": "NRJ", "url": "https://stream.bauermedia.fi/nrj/nrj_128.mp3"},
	{"name": "Radio City", "url": "https://stream.bauermedia.fi/radiocity/radiocity_128.mp3"},
	{"name": "Radio City Hameenlinna", "url": "https://stream.bauermedia.fi/radiocity/hml_128.mp3"},
	{"name": "Radio Classic", "url": "https://stream.bauermedia.fi/classic/classic_128.mp3"},
	{"name": "Radio Dei", "url": "http://isojako.radiodei.fi:8000/yleisohjelma"},
	{"name": "Radio Hear", "url": "http://radio.hear.fi:8000/h128.mp3"},
	{"name": "Radio Helsinki", "url": "http://77.86.233.1:8000/;"},
	{"name": "Radio Inari", "url": "http://radioinari.radioman.fi:8000/radioinari"},
	{"name": "Radio Keskisuomalainen", "url": "https://cast.radiokeskisuomalainen.fi/radiokeskisuomalainen"},
	{"name": "Radio LFF", "url": "https://lff.radiotaajuus.fi:9042/lff"},
	{"name": "Radio Moreeni", "url": "http://moreenistream1.uta.fi:8080/moreeni.mp3"},
	{"name": "Radio Musa", "url": "https://stream.radiojar.com/n6yg5q0z8vzuv"},
	{"name": "Radio Natale", "url": "https://streaming.radiostreamlive.com/radionatale_devices"},
	{"name": "Radio Nostalgia", "url": "https://stream.bauermedia.fi/nostalgia/nostalgia_128.mp3"},
	{"name": "Radio Nova", "url": "https://stream.bauermedia.fi/radionova/radionova_128.mp3"},
	{"name": "Radio Patmos", "url": "https://s3.yesstreaming.net:7011/radio"},
	{"name": "Radio Pooki FM", "url": "https://stream.bauermedia.fi/radiopooki/radiopooki_128.mp3"},
	{"name": "Radio Queen Loviisa RQL", "url": "http://dreamsiteradiocp3.com:8238/;"},
	{"name": "Radio Ramona", "url": "http://185.123.117.122:8000/ramona.mp3"},
	{"name": "Radio Sandels", "url": "http://suomiradio.pro:8080/;"},
	{"name": "Radio Santa Claus", "url": "https://streaming.radiostreamlive.com/radiosantaclaus_devices"},
	{"name": "Radio SUN", "url": "https://st.downtime.fi/sun.mp3"},
	{"name": "Radio Tutka", "url": "http://str0.zenonmedia.com:8002/stream"},
	{"name": "Radio Vaasa", "url": "https://stream.protonbroadcast.com:8443/radiovaasa.mp3"},
	{"name": "Radio Voima", "url": "https://cast2.radiovoima.fi/voima.mp3"},
	{"name": "Savon Aallot", "url": "https://cast.savonaallot.fi/savonaallot"},
	{"name": "Scandinavian Weekend Radio SWR", "url": "http://kuuntele.radioverkko.fi:8000/live"},
	{"name": "Sea FM", "url": "https://s3.myradiostream.com/4976/listen.mp3"},
	{"name": "Suomi Rock", "url": "https://stream.bauermedia.fi/suomirock/suomirock_128.mp3"}
]
