[
	{"name": "Africa No 1", "url": "https://african1paris.ice.infomaniak.ch/african1paris-64.mp3"},
	{"name": "Alta Frequenza", "url": "https://altafrequenza.ice.infomaniak.ch/altafrequenza-128.mp3"},
	{"name": "Autoroute Info Nord", "url": "https://media.autorouteinfo.fr/direct_nord.mp3"},
	{"name": "B FM Business", "url": "https://bfmbusiness.bfmtv.com/bfmbradio-mp3?id=Pmo9Oq0H5z"},
	{"name": "Beur FM", "url": "https://beurfm.ice.infomaniak.ch/beurfm-high.mp3"},
	{"name": "BFM RADIO", "url": "https://audio.bfmtv.com/bfmradio_128.mp3"},
	{"name": "Cerise FM", "url": "https://n26a-eu.rcs.revma.com/q90fb3dwnwzuv.mp3?rj-ttl=5&rj-tok=AAABgpc_-yoAjKVhVkKfShwMpQ"},
	{"name": "Chante France", "url": "https://stream1.evasionfm.com/Chante_France"},
	{"name": "Cherie FM", "url": "https://scdn.nrjaudio.fm/audio1/fr/30201/mp3_128.mp3"},
	{"name": "Classic FM", "url": "https://classicfm.ice.infomaniak.ch/classic-fm.mp3"},
	{"name": "Europe 1", "url": "http://ais-live.cloud-services.paris:8000/europe1.mp3"},
	{"name": "Europe 2", "url": "https://europe2.lmn.fm/europe2.mp3"},
	{"name": "FIP", "url": "https://direct.fipradio.fr/live/fipnantes-lofi.mp3"},
	{"name": "Forum FM", "url": "https://forumlive.ice.infomaniak.ch/forumlive.mp3"},
	{"name": "France Bleu Alsace", "url": "https://direct.francebleu.fr/live/fbalsace-midfi.mp3"},
	{"name": "France Bleu Armorique", "url": "https://direct.francebleu.fr/live/fbarmorique-lofi.mp3"},
	{"name": "France Bleu Azur", "url": "https://direct.francebleu.fr/live/fbazur-lofi.mp3"},
	{"name": "France Bleu Bourgogne", "url": "https://direct.francebleu.fr/live/fbbourgogne-lofi.mp3"},
	{"name": "France Bleu Breizh Izel", "url": "https://direct.francebleu.fr/live/fbbreizizel-lofi.mp3"},
	{"name": "France Bleu Gard Lozere", "url": "https://direct.francebleu.fr/live/fbgardlozere-lofi.mp3"},
	{"name": "France Bleu Isere", "url": "https://direct.francebleu.fr/live/fbisere-lofi.mp3"},
	{"name": "France Bleu Limousin", "url": "https://direct.francebleu.fr/live/fblimousin-lofi.mp3"},
	{"name": "France Bleu Loire Ocean", "url": "https://direct.francebleu.fr/live/fbloireocean-lofi.mp3"},
	{"name": "France Bleu Nord", "url": "https://direct.francebleu.fr/live/fbnord-lofi.mp3"},
	{"name": "France Bleu Normandie Calvados - Orne", "url": "https://direct.francebleu.fr/live/fbbassenormandie-lofi.mp3"},
	{"name": "France Bleu Normandie Seine-Maritime - Eure", "url": "https://direct.francebleu.fr/live/fbhautenormandie-lofi.mp3"},
	{"name": "France Bleu Occitanie", "url": "https://direct.francebleu.fr/live/fbtoulouse-lofi.mp3"},
	{"name": "France Bleu Pays D Auvergne", "url": "https://direct.francebleu.fr/live/fbpaysdauvergne-lofi.mp3"},
	{"name": "France Bleu Pays de Savoie", "url": "https://direct.francebleu.fr/live/fbpaysdesavoie-lofi.mp3"},
	{"name": "France Bleu Perigord", "url": "https://direct.francebleu.fr/live/fbperigord-lofi.mp3"},
	{"name": "France Bleu Picardie", "url": "https://direct.francebleu.fr/live/fbpicardie-lofi.mp3"},
	{"name": "France Bleu Provence", "url": "https://direct.francebleu.fr/live/fbprovence-lofi.mp3"},
	{"name": "France Bleu Rc FM", "url": "https://direct.francebleu.fr/live/fbfrequenzamora-lofi.mp3"},
	{"name": "France Culture", "url": "https://direct.franceculture.fr/live/franceculture-lofi.mp3"},
	{"name": "France Info", "url": "https://direct.franceinfo.fr/live/franceinfo-lofi.mp3"},
	{"name": "France Inter", "url": "https://direct.franceinter.fr/live/franceinter-lofi.mp3"},
	{"name": "France Maghreb 2", "url": "https://francemaghreb2.ice.infomaniak.ch/francemaghreb2-high.mp3"},
	{"name": "France Musique", "url": "https://direct.francemusique.fr/live/francemusique-lofi.mp3"},
	{"name": "FUN Radio", "url": "https://icecast.funradio.fr/fun-1-44-64"},
	{"name": "Generations FM", "url": "https://generationfm.ice.infomaniak.ch/generationfm-high.mp3"},
	{"name": "Jazz Radio", "url": "https://jazzradio.ice.infomaniak.ch/jazzradio-monaco.mp3"},
	{"name": "La Radio Plus", "url": "https://laradioplus.ice.infomaniak.ch/laradioplus-high.mp3"},
	{"name": "M Radio", "url": "https://mfm.ice.infomaniak.ch/mfm-128"},
	{"name": "MC Doualiya", "url": "https://montecarlodoualiya128k.ice.infomaniak.ch/mc-doualiya.mp3"},
	{"name": "Melody Vintage Radio", "url": "https://str0.creacast.com/melody2"},
	{"name": "Mouv FM", "url": "https://direct.mouv.fr/live/mouv-lofi.mp3"},
	{"name": "Nostalgie", "url": "https://scdn.nrjaudio.fm/adwz2/fr/30601/mp3_128.mp3"},
	{"name": "Nova Paris", "url": "https://radionova.ice.infomaniak.ch/novazz-128.mp3"},
	{"name": "NRJ", "url": "http://185.52.127.155/fr/30001/mp3_128.mp3"},
	{"name": "Radio Benin", "url": "https://listen.radioking.com/radio/47608/stream/84424"},
	{"name": "Radio Bonheur", "url": "https://radiobonheur.ice.infomaniak.ch/radiobonheur-128-1.mp3"},
	{"name": "Radio Cap Sao", "url": "https://capsaopremium.ice.infomaniak.ch/capsaopremium-128.mp3"},
	{"name": "Radio Classique", "url": "https://radioclassique.ice.infomaniak.ch/radioclassique-high.mp3"},
	{"name": "Radio Crooner", "url": "https://croonerradio_american.ice.infomaniak.ch/croonerradio-american-midfi"},
	{"name": "Radio Esperance", "url": "https://bretagne5.streamakaci.com/esperance.mp3"},
	{"name": "Radio FG", "url": "https://radiofg.impek.com/fg"},
	{"name": "Radio Maria France", "url": "https://dreamsiteradiocp6.com/proxy/rmfrance1?mp=/stream"},
	{"name": "Radio Orient", "url": "https://stream.rcs.revma.com/7hnrkawf4p8uv.mp3"},
	{"name": "Radio Presence", "url": "https://direct.radiopresence.com/radio-presence-figeac"},
	{"name": "Radio Scoop", "url": "https://radioscoopbourg-en-bresse.ice.infomaniak.ch/radioscoop-bourg-128.mp3"},
	{"name": "Radio Star", "url": "https://www.radioking.com/play/radio-star"},
	{"name": "Radio Vinci Autoroutes", "url": "https://str0.creacast.com/radio_vinci_autoroutes_4"},
	{"name": "RCF", "url": "https://rcf.streamakaci.com/rcf17.mp3"},
	{"name": "RCF en Bourgogne", "url": "https://rcf.streamakaci.com/rcf21.mp3"},
	{"name": "RCF Haute-Savoie", "url": "https://rcf.streamakaci.com/rcf74.mp3"},
	{"name": "RCF Jura", "url": "https://rcf.streamakaci.com/rcf39.mp3"},
	{"name": "RCF M", "url": "https://rcf.streamakaci.com/rcf83.mp3"},
	{"name": "RCF Maguelone Herault", "url": "https://rcf.streamakaci.com/rcf34.mp3"},
	{"name": "RCF Poitou", "url": "https://rcf.streamakaci.com/rcf86.mp3"},
	{"name": "RCF Puy de Dome", "url": "https://rcf.streamakaci.com/rcf63.mp3"},
	{"name": "RCF Savoie", "url": "https://rcf.streamakaci.com/rcf73.mp3"},
	{"name": "RCF Vendee", "url": "https://rcf.streamakaci.com/rcf85.mp3"},
	{"name": "RFM", "url": "http://ais-live.cloud-services.paris:8000/rfm.mp3"},
	{"name": "RMC FM", "url": "https://audio.bfmtv.com/rmcradio_128.mp3"},
	{"name": "RTL", "url": "https://icecast.funradio.fr/rtl-1-44-64"},
	{"name": "RTL 2", "url": "https://streamer-02.rtl.fr/rtl2-1-44-128"},
	{"name": "Sanef", "url": "https://sanef.ice.infomaniak.ch/sanef1077-ouest.mp3"},
	{"name": "Skyrock", "url": "https://icecast.skyrock.net/s/natio_mp3_128k"},
	{"name": "Sud Radio", "url": "https://start-sud.ice.infomaniak.ch/start-sud-high.mp3"},
	{"name": "Sweet FM", "url": "https://sweetfm-lemans.ice.infomaniak.ch/sweetfm-lemans-192.mp3"},
	{"name": "Swigg FM", "url": "https://start-adofm.ice.infomaniak.ch/start-adofm-high"},
	{"name": "Tendance Ouest", "url": "https://streaming.tendanceouest.com/toorne.mp3"},
	{"name": "Totem FM", "url": "https://aratotem.ice.infomaniak.ch/auvergne.mp3"},
	{"name": "Vibration FM", "url": "https://vibration.ice.infomaniak.ch/vibration-high.mp3"},
	{"name": "Virage Radio", "url": "https://virageradio.ice.infomaniak.ch/virageradio-villefranche.mp3"}
]
