[
	{"name": "Adhkar Almasa", "url": "https://stream.zeno.fm/kgbs1bfcpy8uv"},
	{"name": "Anwarock Radio", "url": "https://streamingv2.shoutcast.com/Anwa-rock"},
	{"name": "Aswat FM", "url": "https://broadcast.ice.infomaniak.ch/aswat-high.mp3"},
	{"name": "Aswatalweb", "url": "https://stream.zeno.fm/wfu6dm8w1qruv"},
	{"name": "Azawan Amazigh", "url": "http://151.80.33.75:9000/;"},
	{"name": "Bohossss", "url": "https://stream.zeno.fm/tb6bfwfpdv8uv"},
	{"name": "Cap Radio", "url": "https://streamer.eagrpservices.com/audio/capradio.mp3"},
	{"name": "Chada FM", "url": "https://streamer.eagrpservices.com/audio/chadafm.mp3"},
	{"name": "DIB Radio", "url": "https://streaming2.rimradio.ma/dibradio"},
	{"name": "Hexagone FM", "url": "https://streamingv2.shoutcast.com/HexagoneFM-LaFabuleuseMusique"},
	{"name": "Hit Radio", "url": "http://icepe1.infomaniak.ch/hitradio-Morocco-128.mp3"},
	{"name": "HIT Radio Buzz", "url": "https://buzz.ice.infomaniak.ch/buzz-128.mp3"},
	{"name": "HIT Radio Cover", "url": "https://hitradio-maroc.ice.infomaniak.ch/hitradio-maroc-128.mp3"},
	{"name": "HIT Radio Dancefloor", "url": "https://dancefloor.ice.infomaniak.ch/dancefloor-128.mp3"},
	{"name": "HIT Radio Gold", "url": "http://stream.gardaricafm.ru:8000/gold.mp3"},
	{"name": "HIT Radio Mgharba", "url": "https://mgharba.ice.infomaniak.ch/mgharba-128.mp3"},
	{"name": "HIT Radio RnB", "url": "https://rnb.ice.infomaniak.ch/rnb-128.mp3"},
	{"name": "IzlanZik", "url": "http://server.izlanzik.org:8000/;"},
	{"name": "La Confiserie Sonore", "url": "https://listen.radioking.com/radio/115108/stream/154390"},
	{"name": "M FM", "url": "https://streamer.eagrpservices.com/audio/mfmradio.ogg"},
	{"name": "Medi 1 Andalouse", "url": "http://live.medi1.com/Andalouse"},
	{"name": "Medi 1 Nayda", "url": "http://live.medi1.com/Nayda#.mp3"},
	{"name": "Medina FM", "url": "https://medinafm.ice.infomaniak.ch/medinafm-64.mp3"},
	{"name": "Medradio FM", "url": "https://streamer.eagrpservices.com/audio/medradio.mp3"},
	{"name": "Ness Radio", "url": "http://radio.nessradio.net:8000/nessradio-64kbs.mp3"},
	{"name": "Radio Adwaa FM", "url": "https://stream.zeno.fm/5bxh2nh0x1zuv"},
	{"name": "Radio Adwaa FM 2", "url": "https://stream.zeno.fm/vrrtqsh0x1zuv"},
	{"name": "Radio Adwaa FM 3", "url": "https://stream.zeno.fm/x4451xh0x1zuv"},
	{"name": "Radio Adwaa FM 4", "url": "https://stream.zeno.fm/8wrs2bh0x1zuv"},
	{"name": "Radio Adwaa FM 5", "url": "https://stream.zeno.fm/ezxx195gq2zuv"},
	{"name": "Radio Adwaa FM 6", "url": "https://stream.zeno.fm/tvxvud2kpm0uv"},
	{"name": "Radio Aljalia", "url": "https://stream.zeno.fm/tr9cahm7z5quv"},
	{"name": "Radio Atbir", "url": "https://stream.zeno.fm/bqdbb6hd0neuv"},
	{"name": "Radio Azawan", "url": "https://az-maroc.ice.infomaniak.ch/az-maroc-128.mp3"},
	{"name": "Radio Mars", "url": "https://radiomars.ice.infomaniak.ch/radiomars-128.mp3"},
	{"name": "Radio Sawa Maghreb", "url": "https://stream.radiojar.com/7yh1c22r92quv"},
	{"name": "Radio Tanger Med", "url": "https://radiotangermed-22.ice.infomaniak.ch/radiotangermed-22-128.mp3"},
	{"name": "Skyrock Casablanca", "url": "https://icecast.skyrock.net/s/casa_aac_64k"},
	{"name": "Yabiladi", "url": "http://media.yabiladi.com:8000/stream"}
]
