[
	{"name": "Ariel radio", "url": "https://streams.radio.co/sf069f3c03/listen"},
	{"name": "Big hiphop & rnb", "url": "https://live-bauerno.sharp-stream.com/station10_no_hq"},
	{"name": "Bingokanalen", "url": "http://radioip.no:8000/stream/5/;"},
	{"name": "Bygderadio vest radio nordvest volda sunnmre", "url": "http://radio.bygderadiovest.no:8000/radio"},
	{"name": "Elverums radioen", "url": "https://lyd.radioene.no/elverum.mp3"},
	{"name": "Guovdageainnu lagasradio (glr), radio dsf, bbc ws", "url": "https://streaming.radio.co/s5b773f8d3/listen"},
	{"name": "Hamar radioen mjsradioen", "url": "http://lyd.radioene.no:8000/hamar.mp3"},
	{"name": "Hjalarhornet radio telemark", "url": "https://lyd.hjalar.no/hjalar_hq"},
	{"name": "Jm radio", "url": "http://radioip.no:443/jm"},
	{"name": "Jul i innlandet", "url": "http://lyd.radioene.no:8000/jul.mp3"},
	{"name": "Kiss", "url": "https://live-bauerno.sharp-stream.com/kiss_no_mp3"},
	{"name": "Klem fm", "url": "https://p7.p4groupaudio.com/P07_MH"},
	{"name": "Kristenradio vest", "url": "http://5604.cloudrad.io:8268/kristenradiovest.mp3"},
	{"name": "Nea radio", "url": "https://nettradio.nearadio.no:8100/stream"},
	{"name": "Nea trnderhits", "url": "https://nettradio.nearadio.no:8112/stream"},
	{"name": "Norsk pop", "url": "https://live-bauerno.sharp-stream.com/norskpop_no_mp3"},
	{"name": "Nrj bergen", "url": "https://nrj.p4groupaudio.com/NRJ_MM"},
	{"name": "Nrj fm", "url": "https://nrj.p4groupaudio.com/NRJ_MM"},
	{"name": "Nrk alltid nyheter", "url": "https://lyd.nrk.no/nrk_radio_alltid_nyheter_mp3_l"},
	{"name": "Nrk folkemusikk", "url": "https://lyd.nrk.no/nrk_radio_folkemusikk_mp3_m"},
	{"name": "Nrk jazz", "url": "https://lyd.nrk.no/nrk_radio_jazz_mp3_l"},
	{"name": "Nrk klassisk", "url": "https://lyd.nrk.no/nrk_radio_klassisk_mp3_m"},
	{"name": "Nrk mp3", "url": "https://lyd.nrk.no/nrk_radio_mp3_mp3_l"},
	{"name": "Nrk p1", "url": "https://lyd.nrk.no/nrk_radio_p1_hordaland_mp3_l"},
	{"name": "Nrk p1+", "url": "https://lyd.nrk.no/nrk_radio_p1pluss_mp3_m"},
	{"name": "Nrk p13", "url": "https://lyd.nrk.no/nrk_radio_p13_mp3_l"},
	{"name": "Nrk p2", "url": "https://lyd.nrk.no/nrk_radio_p2_mp3_m"},
	{"name": "Nrk p3", "url": "https://lyd.nrk.no/nrk_radio_p3_mp3_l"},
	{"name": "Nrk sport", "url": "https://lyd.nrk.no/nrk_radio_sport_mp3_m"},
	{"name": "P10 country", "url": "https://p10.p4groupaudio.com/P10_MM"},
	{"name": "P4 lyden av norge", "url": "https://p4.p4groupaudio.com/P04_MM"},
	{"name": "P5 bergen", "url": "https://p5.p4groupaudio.com/P05_MM"},
	{"name": "P5 hits", "url": "https://p5.p4groupaudio.com/P05_MH"},
	{"name": "P6 rock", "url": "https://p6.p4groupaudio.com/P06_MM"},
	{"name": "P7.no - kystradioen", "url": "https://radio.p7.no/radio/8020/kristen_riksradio"},
	{"name": "P8 pop", "url": "https://p8.p4groupaudio.com/P08_MM"},
	{"name": "P9 retro", "url": "https://p9.p4groupaudio.com/P09_MM"},
	{"name": "Ptro", "url": "https://rbx2.hnux.com/149.202.22.75:8048/;"},
	{"name": "Radio alesund", "url": "https://audio.jaerradiogruppen.no/aalesund_hq"},
	{"name": "Radio asky", "url": "https://radioaskoy.radioca.st/sender"},
	{"name": "Radio atlantic ryfylkeradioen salem", "url": "https://audio.jaerradiogruppen.no/atlantic_hq"},
	{"name": "Radio b", "url": "https://nettradio.radiobo.com/radiobo-high"},
	{"name": "Radio bardufoss - radio midt-troms", "url": "https://stream.bardufoss.no/radiobardufoss192"},
	{"name": "Radio folgefonn", "url": "http://185.35.185.161:8000/radio"},
	{"name": "Radio grenland", "url": "https://audio.jaerradiogruppen.no/grenland_hq"},
	{"name": "Radio hallingdal", "url": "http://audio.visto.no/radiohallingdal"},
	{"name": "Radio haugaland", "url": "http://radioh.no:8000/rh48.mp3"},
	{"name": "Radio haugaland gull", "url": "http://stream.radioh.no:443/rh.mp3"},
	{"name": "Radio kongsvinger sentrum", "url": "http://lyd.radioene.no:8000/kongsvinger.mp3"},
	{"name": "Radio kos", "url": "https://lyd.radiokos.no/kos_hq"},
	{"name": "Radio ksu 247", "url": "https://c4.radioboss.fm:18099/stream2"},
	{"name": "Radio kvinesdal scan sat", "url": "http://stream.radioh.no:443/scan128"},
	{"name": "Radio latin", "url": "https://stream.radiolatinamerika.no/latam_hq"},
	{"name": "Radio loland fm", "url": "http://stream.radiololand.no:5000/loland128"},
	{"name": "Radio lyngdal", "url": "https://live.radiolyngdal.com/rly_hq"},
	{"name": "Radio norge", "url": "https://live-bauerno.sharp-stream.com/radionorge_no_mp3"},
	{"name": "Radio nova", "url": "https://stream.radiorakel.no/fm993.mp3"},
	{"name": "Radio randsfjord", "url": "https://stream.radiorandsfjord.no/randsfjord128.mp3"},
	{"name": "Radio rjukan", "url": "https://stream.radiorjukan.no/rjukan_hq"},
	{"name": "Radio rock", "url": "https://live-bauerno.sharp-stream.com/radiorock_no_mp3"},
	{"name": "Radio rox", "url": "https://stream.oneplay.no/rox128"},
	{"name": "Radio stryn", "url": "https://lyd.radiostryn.no/stryn_hq"},
	{"name": "Radio sunnmre nordvest new life", "url": "http://ipradio.no:8000/FM101"},
	{"name": "Radio tnsberg", "url": "https://audio.radiotonsberg.no/tonsberg_hq"},
	{"name": "Radio trndelag - budstikka radio", "url": "http://nettradio.radiotrondelag.no:8000/radio_trondelag"},
	{"name": "Radio vest-telemark", "url": "https://stream.radiovt.no/radiovt_hq"},
	{"name": "Radio vinyl", "url": "https://live-bauerno.sharp-stream.com/vinyl_no_mp3"},
	{"name": "Scansat radio", "url": "http://stream.radioh.no:443/scan128"},
	{"name": "Silkeveien radio", "url": "https://stream.radiojar.com/2arcr5qmb"},
	{"name": "Solr radioen radio valer nr", "url": "http://lyd.radioene.no:8000/solor.mp3"},
	{"name": "Sterdals radioen", "url": "http://lyd.radioene.no:8000/osterdal.mp3"},
	{"name": "Topp 40", "url": "https://live-bauerno.sharp-stream.com/top40_no_mp3"},
	{"name": "Trysilradioen", "url": "http://lyd.radioene.no:8000/trysil.mp3"},
	{"name": "Valdres radio", "url": "http://stream.east.no:8000/valdres.mp3"}
]
