[
	{"name": "Bandit classic", "url": "https://wr11-ice.stream.khz.se/wr11_mp3"},
	{"name": "Bandit rock", "url": "https://fm02-ice.stream.khz.se/fm02_mp3"},
	{"name": "Dansbandsfavoriter", "url": "https://wr15-ice.stream.khz.se/wr15_mp3"},
	{"name": "Dansbandskanalen", "url": "https://stream.dbmedia.se/dbkMP3"},
	{"name": "Fun radio", "url": "http://stream.funradio.se/live128"},
	{"name": "Gamla favoriter", "url": "https://wr09-ice.stream.khz.se/wr09_mp3"},
	{"name": "Go country", "url": "https://wr14-ice.stream.khz.se/wr14_mp3"},
	{"name": "Gold fm", "url": "https://stream2.mediasector.es/goldfm.mp3"},
	{"name": "Guldkanalen", "url": "https://stream.dbmedia.se/gkMP3"},
	{"name": "Hallsta-sura narradio", "url": "http://s16.myradiostream.com:6630/;"},
	{"name": "Hitmix90's", "url": "https://wr19-ice.stream.khz.se/wr19_mp3"},
	{"name": "Karlstad narradio", "url": "http://radio.kunskapsradion.nu:8000/;"},
	{"name": "Kristianstad narradio sveriges kristna radio", "url": "https://s2.radio.co/sfbf5f5b85/listen"},
	{"name": "Lugna favoriter", "url": "https://fm03-ice.stream.khz.se/fm03_mp3"},
	{"name": "Malmokanalen 81.2", "url": "http://stream.nsp.se:8000/MNR89_MP3_Lo"},
	{"name": "Mix megapol", "url": "https://tx-bauerse.sharp-stream.com/http_live.php?i=mixmegapolgbg_instream_se_mp3"},
	{"name": "Nrj fm", "url": "https://tx-bauerse.sharp-stream.com/http_live.php?i=nrj_instreamtest_se_mp3"},
	{"name": "Orsa narradio - onar", "url": "http://stream.ueteknik.se:8000/orsa"},
	{"name": "Pite fmpitea narradioforening studentradion fm", "url": "https://pitefmstream.ltu.se:8443/pitefm.mp3"},
	{"name": "Pop och rock lycksele", "url": "http://stream.ueteknik.se:8000/poporock"},
	{"name": "Power hit radio", "url": "https://fm04-ice.stream.khz.se/fm04_mp3"},
	{"name": "Puls fm", "url": "https://pulsfm.radioca.st/stream"},
	{"name": "Radio 45", "url": "http://streaming2.nordblommedia.se:443/amal.mp3"},
	{"name": "Radio active", "url": "https://live-bauerse-fm.sharp-stream.com/radioactive_mp3"},
	{"name": "Radio bastad", "url": "http://212.31.164.21:8004/;"},
	{"name": "Radio bohuslan", "url": "http://radio.itconnect.se/rb2"},
	{"name": "Radio bohuslan lysekil fm", "url": "http://radio.itconnect.se/rb1"},
	{"name": "Radio fryksdalen", "url": "https://webradio.radiofryksdalen.se/RF_Live"},
	{"name": "Radio gavle", "url": "http://kepler.shoutca.st:8271/stream/3/;"},
	{"name": "Radio krokom", "url": "http://radiokrokom.ddns.net:8000/;"},
	{"name": "Radio linkoping premier r", "url": "https://stream.linkopingsnarradio.se:8005/radioprogram"},
	{"name": "Radio ljungby ljungbykanalen", "url": "http://217.197.59.86/ljungbykanalen"},
	{"name": "Radio lulea", "url": "http://88.129.244.121:8000/listen"},
	{"name": "Radio mnf-mangkulturella nr tv", "url": "http://radio.darub.se:8000/mnf.mp3"},
	{"name": "Radio osteraker", "url": "http://lyssna.osteraker.se/live-mp3-128"},
	{"name": "Radio prime", "url": "https://radioprime.se/stream"},
	{"name": "Radio siljan", "url": "http://stream.ueteknik.se:8000/;"},
	{"name": "Retro fm", "url": "https://live-bauerse-fm.sharp-stream.com/retrofm_mp3"},
	{"name": "Rix fm", "url": "https://fm01-ice.stream.khz.se/fm01_mp3"},
	{"name": "Rix fm fresh", "url": "https://wr04-ice.stream.khz.se/wr04_mp3"},
	{"name": "Rockklassiker", "url": "https://tx-bauerse.sharp-stream.com/http_live.php?i=rockklassiker_instream_se_mp3"},
	{"name": "Rockstar", "url": "http://stream.radiosiljan.com/rockstar"},
	{"name": "Skargardsradion fm", "url": "http://sgr.radioprod.se:8000/skargarden_hi"},
	{"name": "Sr din gata", "url": "https://http-live.sr.se/dingata-mp3-64"},
	{"name": "Sr p1", "url": "https://http-live.sr.se/p1-mp3-192"},
	{"name": "Sr p2", "url": "https://http-live.sr.se/p2-mp3-192"},
	{"name": "Sr p3", "url": "https://http-live.sr.se/p3-mp3-192"},
	{"name": "Sr p4 blekinge", "url": "https://http-live.sr.se/srextra12-mp3-128"},
	{"name": "Sr p4 dalarna", "url": "https://http-live.sr.se/p4dalarna-mp3-192"},
	{"name": "Sr p4 gavleborg", "url": "https://http-live.sr.se/p4gavleborg-mp3-192"},
	{"name": "Sr p4 goteborg", "url": "https://http-live.sr.se/p4goteborg-mp3-192"},
	{"name": "Sr p4 gotland", "url": "https://http-live.sr.se/p4gotland-mp3-192"},
	{"name": "Sr p4 halland", "url": "https://http-live.sr.se/p4halland-mp3-192"},
	{"name": "Sr p4 jamtland", "url": "https://http-live.sr.se/p4jamtland-mp3-192"},
	{"name": "Sr p4 jonkoping", "url": "https://http-live.sr.se/p4jonkoping-mp3-192"},
	{"name": "Sr p4 kalmar", "url": "https://http-live.sr.se/p4kalmar-mp3-192"},
	{"name": "Sr p4 kristianstad", "url": "https://http-live.sr.se/p4kristianstad-mp3-192"},
	{"name": "Sr p4 kronoberg", "url": "https://http-live.sr.se/p4kronoberg-mp3-192"},
	{"name": "Sr p4 malmohus", "url": "https://http-live.sr.se/p4malmo-mp3-192"},
	{"name": "Sr p4 norrbotten", "url": "https://http-live.sr.se/p4norrbotten-mp3-192"},
	{"name": "Sr p4 orebro", "url": "https://http-live.sr.se/p4orebro-mp3-192"},
	{"name": "Sr p4 ostergotland", "url": "https://http-live.sr.se/p4ostergotland-mp3-192"},
	{"name": "Sr p4 sjuharad", "url": "https://http-live.sr.se/p4sjuharad-mp3-192"},
	{"name": "Sr p4 skaraborg", "url": "https://http-live.sr.se/p4skaraborg-mp3-192"},
	{"name": "Sr p4 sormland", "url": "https://http-live.sr.se/p4sormland-mp3-192"},
	{"name": "Sr p4 stockholm", "url": "https://http-live.sr.se/p4stockholm-mp3-192"},
	{"name": "Sr p4 uppland", "url": "https://http-live.sr.se/p4uppland-mp3-192"},
	{"name": "Sr p4 varmland", "url": "https://http-live.sr.se/p4varmland-mp3-192"},
	{"name": "Sr p4 vast", "url": "https://http-live.sr.se/p4vast-mp3-128"},
	{"name": "Sr p4 vasterbotten", "url": "https://http-live.sr.se/p4vasterbotten-mp3-192"},
	{"name": "Sr p4 vasternorrland", "url": "https://http-live.sr.se/p4vasternorrland-mp3-192"},
	{"name": "Sr p4 vastmanland", "url": "https://http-live.sr.se/p4vastmanland-mp3-192"},
	{"name": "Star fm", "url": "https://fm05-ice.stream.khz.se/fm05_mp3"},
	{"name": "Svensk pop", "url": "https://tx.sharp-stream.com/http_live.php?i=svenskpop_se_mp3"},
	{"name": "Svenska favorit", "url": "https://wr13-ice.stream.khz.se/wr13_mp3"},
	{"name": "Sveriges radio - sr p 6", "url": "https://http-live.sr.se/srinternational-mp3-64"},
	{"name": "Sveriges radio - sr sisuradio", "url": "https://http-live.sr.se/sisuradio-mp3-192"},
	{"name": "Vinyl fm", "url": "https://tx-bauerse.sharp-stream.com/http_live.php?i=vinylfm_instream_se_mp3"}
]
