[
	{"name": "Bayram fm", "url": "http://sunucu.radyodinle.com:3442/;"},
	{"name": "CNN turk radyo", "url": "https://radyo.duhnet.tv/ak_dtvh_cnnturk"},
	{"name": "Cri turk fm", "url": "https://stream.guventechnology.com:2020/stream/criturkradyo"},
	{"name": "Dost fm", "url": "http://yayin.dostfm.com:8920/DOSTFM"},
	{"name": "Erk radyo", "url": "https://yayin2.canliyayin.org:10910/;"},
	{"name": "Kral pop", "url": "http://kralpopwmp.radyotvonline.com/;"},
	{"name": "Lalegul - istanbul fm", "url": "https://icecast.netmedya.net/lalegulfm"},
	{"name": "Mercan - eynesil fm", "url": "https://ip169.ozelip.com:10975/;"},
	{"name": "Meteorolojinin sesi radyosu", "url": "https://radyomgm.canliyayinda.com/;"},
	{"name": "Ntv radyo", "url": "http://ntvrdwmp.radyotvonline.com/;"},
	{"name": "Power - love", "url": "https://listen.powerapp.com.tr/powerlove/mpeg/icecast.audio"},
	{"name": "Power - pop", "url": "https://listen.powerapp.com.tr/powerpop/mpeg/icecast.audio"},
	{"name": "Radio fg - istanbul", "url": "http://sc.vargonen.net:9001/;"},
	{"name": "Radyo 45 lik - izmir", "url": "https://stream.radyo45lik.com:4545/stream"},
	{"name": "Radyo d", "url": "https://radyo.duhnet.tv/radyod"},
	{"name": "Radyo duble - istanbul", "url": "https://radyo.yayin.com.tr:6030/;"},
	{"name": "Radyo turk", "url": "https://stream.rcast.net/200346"},
	{"name": "Radyo voyage - istanbul", "url": "http://voyagewmp.radyotvonline.com/;"},
	{"name": "Rs fm", "url": "https://icecast-rian.cdnvideo.ru/voicestm"},
	{"name": "Sawt al-khaleej", "url": "https://edge-audio-04-thn.sharp-stream.com/spectrum4.mp3"},
	{"name": "Semerkand radyo", "url": "https://mtisvwurbfcyslive.mediatriple.net/mtisvwurbfcyslive/broadcast_58e23cb112296.smil/Playlist.m3u8"},
	{"name": "Seyr - istanbul fm", "url": "https://sslyayin.netyayin.net/8024/stream"},
	{"name": "Slow turk", "url": "https://radyo.duhnet.tv/ak_dtvh_slowturk"},
	{"name": "Super show radyo", "url": "https://windows.showradyo.com.tr/;"},
	{"name": "Yon radyo - istanbul", "url": "https://stream.radyolarburada.com/radio/8020/yonradyo"}
]
