[
	{"name": "Bott radio network", "url": "https://ic1.sslstream.com:8000/bottradio.mp3"},
	{"name": "Chileville radio", "url": "http://us3.internet-radio.com:8313/;"},
	{"name": "Classical mpr - classical 24", "url": "https://cms.stream.publicradio.org/cms.mp3"},
	{"name": "Covenant network", "url": "http://covenantnet.stream.miriamtech.net:8000/stream-sfo"},
	{"name": "Ewtn catholic radio", "url": "https://s37.myradiostream.com:13908/listen.mp3"},
	{"name": "Faith 1090", "url": "https://nwm.streamguys1.com/ktis-am-4"},
	{"name": "Freedom radio", "url": "https://stream.freedomradiofm.com/live.mp3"},
	{"name": "Georgia public broadcasting", "url": "https://gpb.streamguys1.com/gpb-radio-mp3"},
	{"name": "His radio", "url": "https://myradio24.org/walcon"},
	{"name": "Ideas network", "url": "https://wpr-ice.streamguys1.com/wpr-ideas-mp3-64"},
	{"name": "Iowa public radio classical", "url": "https://classical-stream.iowapublicradio.org/Classical.mp3"},
	{"name": "Iowa public radio news and studio one", "url": "https://studioone-stream.iowapublicradio.org/StudioOne.mp3"},
	{"name": "Kinship christian radio", "url": "http://quarrel.str3am.com:7780/stream2"},
	{"name": "La poderosa 96.1 fm", "url": "https://stream.radiojar.com/2860dfxpvzzuv"},
	{"name": "Light praise radio", "url": "https://stream.ktlf.radio/radio/8000/theLight"},
	{"name": "Moody radio", "url": "https://primary.moodyradiostream.org/wmbifm.mp3"},
	{"name": "Msnbc", "url": "http://peridot.streamguys.com:7850/live"},
	{"name": "North carolina public radio", "url": "https://edg-iad-wunc-ice.streamguys1.com/wunc-hd2-128-mp3"},
	{"name": "Npr news and talk", "url": "https://npr-ice.streamguys1.com/live.mp3"},
	{"name": "Radio 74 internationale", "url": "http://peace.str3am.com:7020/live"},
	{"name": "Radio aleluja", "url": "https://radio.aleluya.cloud/radio/8010/stream"},
	{"name": "Radio bilingue", "url": "http://50.245.174.62:7070/broadwave.mp3"},
	{"name": "Radio heartland - mpr", "url": "https://rockthecradle.stream.publicradio.org/radioheartland.mp3"},
	{"name": "Radio iq", "url": "https://wvtf.streamguys1.com/wvtf-edge/radioiq-mp3-64/icecast.audio"},
	{"name": "Radio vida", "url": "http://shout2.brnstream.com:8006/;"},
	{"name": "Real presence radio", "url": "http://realpresence.stream.miriamtech.net:13700/kgll"},
	{"name": "Rejoice radio", "url": "http://cld2099ice.audiovideoweb.com:8000/4c3ice5521"},
	{"name": "Sos radio network", "url": "https://ic2.sslstream.com:8000/sosnet.mp3"},
	{"name": "Strong tower radio", "url": "https://strongtowerradio.streamguys1.com/smartmetadata-live"},
	{"name": "Supertalk mississippi", "url": "https://live.wostreaming.net/direct/telesouth-wfmnfmmp3-imc1"},
	{"name": "The oasis network", "url": "https://oasis.streamguys1.com/live-mp3"},
	{"name": "Tudn radio", "url": "https://live.wostreaming.net/direct/goodkarma-weflammp3-ibc2"},
	{"name": "Utah public radio", "url": "http://uprxstreamer.usu.edu:8000/stream"},
	{"name": "Way fm", "url": "https://wayfm.streamguys1.com/kpwa.mp3"},
	{"name": "Wcbu hd2", "url": "https://wglt-ice.streamguys1.com/wcbuclassical-mp3"},
	{"name": "Wnyc - new york public radio", "url": "https://fm939.wnyc.org/wnycfm"},
	{"name": "Wpr - wisconsin public radio news and classical", "url": "https://wpr-ice.streamguys1.com/wpr-music-mp3-96"},
	{"name": "Wyoming public radio", "url": "https://wyoming-public-ice.streamguys1.com/WPR128MP3"},
	{"name": "Yellowstone public radio", "url": "https://knmc.streamguys1.com/live-mp3"}
]
